icarus/top_tt.vcd
$date
	Thu Nov 27 21:05:11 2025
$end
$version
	Icarus Verilog
$end
$timescale
	1ps
$end
$scope module top_tt $end
$var wire 1 ! uart_rx $end
$var wire 1 " tx_done $end
$var wire 4 # sel0 [3:0] $end
$var wire 8 $ seg0 [7:0] $end
$var wire 14 % da_data [13:0] $end
$var wire 1 & da_clk $end
$var wire 10 ' ad_data [9:0] $end
$var wire 1 ( ad_clk $end
$var reg 1 ) clk $end
$var reg 5 * keys [4:0] $end
$var reg 1 + refresh $end
$var reg 1 , rst_n $end
$var reg 8 - swiches [7:0] $end
$var reg 20 . tx_data [19:0] $end
$var reg 1 / tx_pulse $end
$scope module u_top $end
$var wire 1 ( ad_clk $end
$var wire 10 0 ad_data [9:0] $end
$var wire 1 1 ch1_n $end
$var wire 1 2 ch1_p $end
$var wire 1 ) clk $end
$var wire 1 & da_clk $end
$var wire 4 3 fft_rate [3:0] $end
$var wire 5 4 keys [4:0] $end
$var wire 24 5 phase_inc_delta [23:0] $end
$var wire 1 , rst_n $end
$var wire 8 6 swiches [7:0] $end
$var wire 2 7 wav_sel [1:0] $end
$var wire 16 8 xadc_dout [15:0] $end
$var wire 1 9 xadc_en $end
$var wire 1 : xadc_eoc $end
$var wire 1 ; xadc_wen $end
$var wire 20 < wr_data [19:0] $end
$var wire 2 = uart_wav_sel [1:0] $end
$var wire 3 > uart_seg_en [2:0] $end
$var wire 1 ! uart_rx $end
$var wire 12 ? uart_freq [11:0] $end
$var wire 1 @ uart_fft_refresh $end
$var wire 2 A uart_fft_rate [1:0] $end
$var wire 10 B triangle [9:0] $end
$var wire 1 C system_resetn $end
$var wire 10 D square [9:0] $end
$var wire 10 E sin [9:0] $end
$var wire 4 F sel1 [3:0] $end
$var wire 4 G sel0 [3:0] $end
$var wire 2 H seg_wav_sel [1:0] $end
$var wire 24 I seg_freq_inc [23:0] $end
$var wire 1 J seg_fft_refresh $end
$var wire 4 K seg_fft_rate [3:0] $end
$var wire 8 L seg1 [7:0] $end
$var wire 8 M seg0 [7:0] $end
$var wire 10 N sawtooth [9:0] $end
$var wire 1 O refresh $end
$var wire 1 P ovalid $end
$var wire 1 Q out_en $end
$var wire 8 R odata2 [7:0] $end
$var wire 8 S odata [7:0] $end
$var wire 8 T oaddr2 [7:0] $end
$var wire 8 U oaddr [7:0] $end
$var wire 8 V led [7:0] $end
$var wire 1 W flag $end
$var wire 14 X da_data [13:0] $end
$var wire 10 Y cos [9:0] $end
$var wire 20 Z command_data [19:0] $end
$var wire 8 [ amp_out [7:0] $end
$var wire 9 \ amp_addr [8:0] $end
$var parameter 32 ] DATA_W $end
$var parameter 32 ^ ID0 $end
$var parameter 32 _ ID1 $end
$var parameter 32 ` PHASE_W $end
$var parameter 32 a ROM_ADDR_W $end
$var parameter 32 b phase_inc_base $end
$var reg 7 c addr [6:0] $end
$var reg 16 d cnt_max [15:0] $end
$var reg 2 e delay [1:0] $end
$var reg 1 f div_clk $end
$var reg 10 g div_cnt [9:0] $end
$var reg 1 h fft_clk $end
$var reg 16 i fft_clk_cnt [15:0] $end
$var reg 10 j fft_data [9:0] $end
$var reg 10 k out_wav [9:0] $end
$var reg 1 l start $end
$var reg 17 m xadc_data [16:0] $end
$var reg 16 n xadc_din [15:0] $end
$scope module u_DDS $end
$var wire 1 f clk $end
$var wire 24 o phase_inc_delta [23:0] $end
$var wire 1 , rst_n $end
$var wire 9 p sin_ori [8:0] $end
$var wire 2 q quarter [1:0] $end
$var wire 9 r cos_ori [8:0] $end
$var parameter 32 s DATA_W $end
$var parameter 32 t PHASE_W $end
$var parameter 41 u ROM_ADDR_MAX $end
$var parameter 32 v ROM_ADDR_W $end
$var parameter 32 w phase_inc_base $end
$var reg 10 x cos [9:0] $end
$var reg 8 y cos_addr [7:0] $end
$var reg 24 z phase [23:0] $end
$var reg 2 { quarter_d [1:0] $end
$var reg 10 | sawtooth [9:0] $end
$var reg 10 } sin [9:0] $end
$var reg 8 ~ sin_addr [7:0] $end
$var reg 10 !" square [9:0] $end
$var reg 10 "" triangle [9:0] $end
$scope module sin_rom $end
$var wire 8 #" addr1 [7:0] $end
$var wire 8 $" addr2 [7:0] $end
$var wire 1 f clk $end
$var wire 1 , rst_n $end
$var parameter 32 %" ADDR_W $end
$var parameter 33 &" DATA_W $end
$var parameter 576 '" INIT_FILE $end
$var parameter 32 (" MEM_DEPTH $end
$var reg 9 )" data_out1 [8:0] $end
$var reg 9 *" data_out2 [8:0] $end
$upscope $end
$upscope $end
$scope module u_MaxMin $end
$var wire 1 h clock $end
$var wire 7 +" iaddr [6:0] $end
$var wire 1 P ovalid $end
$var wire 7 ," range [6:0] $end
$var wire 1 , reset_n $end
$var wire 1 -" test_done_sig $end
$var wire 1 ." test_start_sig $end
$var wire 8 /" odata2 [7:0] $end
$var wire 8 0" odata [7:0] $end
$var wire 7 1" oaddr2 [6:0] $end
$var wire 7 2" oaddr [6:0] $end
$var wire 1 Q ivalid $end
$var wire 8 3" idata [7:0] $end
$var parameter 32 4" DSINGED $end
$var parameter 32 5" DWIDTH $end
$var parameter 24 6" MODESET $end
$var parameter 32 7" RWIDTH $end
$var parameter 3 8" state_detection $end
$var parameter 3 9" state_initial $end
$var parameter 3 :" state_output $end
$var reg 7 ;" count [6:0] $end
$var reg 1 <" done_buf $end
$var reg 1 =" done_reg $end
$var reg 7 >" oaddr2_buf [6:0] $end
$var reg 7 ?" oaddr2_reg [6:0] $end
$var reg 7 @" oaddr_buf [6:0] $end
$var reg 7 A" oaddr_reg [6:0] $end
$var reg 8 B" odata2_buf [7:0] $end
$var reg 8 C" odata2_reg [7:0] $end
$var reg 8 D" odata_buf [7:0] $end
$var reg 8 E" odata_reg [7:0] $end
$var reg 3 F" state [2:0] $end
$var reg 1 G" test_sig $end
$var reg 1 H" test_sig_buf $end
$upscope $end
$scope module u_fft_ctrl $end
$var wire 1 h clk $end
$var wire 10 I" data_in [9:0] $end
$var wire 1 Q out_en $end
$var wire 1 O refresh $end
$var wire 1 J" refresh_pulse $end
$var wire 1 , rst_n $end
$var wire 1 K" overflow $end
$var wire 20 L" out_x [19:0] $end
$var wire 1 M" out_nd $end
$var wire 8 N" amp_out [7:0] $end
$var wire 8 O" amp_ori [7:0] $end
$var wire 9 P" amp_addr [8:0] $end
$var parameter 32 Q" ABS_W $end
$var parameter 64 R" ADDR_W $end
$var parameter 32 S" DATA_WIDTH $end
$var parameter 32 T" SQRT_W $end
$var parameter 32 U" TOTAL_STEP $end
$var reg 9 V" count [8:0] $end
$var reg 9 W" count_d0 [8:0] $end
$var reg 9 X" count_d1 [8:0] $end
$var reg 9 Y" count_d2 [8:0] $end
$var reg 10 Z" iaddr [9:0] $end
$var reg 10 [" iaddr_d [9:0] $end
$var reg 1 \" in_nd $end
$var reg 7 ]" oImag_abs [6:0] $end
$var reg 7 ^" oReal_abs [6:0] $end
$var reg 1 _" out_d0 $end
$var reg 1 `" out_d1 $end
$var reg 1 a" out_d2 $end
$var reg 10 b" out_i [9:0] $end
$var reg 10 c" out_r [9:0] $end
$var reg 1 d" refresh_d0 $end
$var reg 1 e" refresh_d1 $end
$scope module u_ROM $end
$var wire 14 f" addr [13:0] $end
$var wire 1 h clk $end
$var wire 1 , rst_n $end
$var parameter 64 g" ADDR_W $end
$var parameter 32 h" DATA_W $end
$var parameter 576 i" INIT_FILE $end
$var parameter 32 j" MEM_DEPTH $end
$var reg 8 k" data_out [7:0] $end
$upscope $end
$scope module u_dit $end
$var wire 1 h clk $end
$var wire 8 l" in0_addr [7:0] $end
$var wire 1 \" in_nd $end
$var wire 20 m" in_x [19:0] $end
$var wire 1 , rst_n $end
$var wire 1 n" z_nd $end
$var wire 20 o" z [19:0] $end
$var wire 1 p" updated1 $end
$var wire 1 q" updated0 $end
$var wire 7 r" tf_addr [6:0] $end
$var wire 20 s" tf [19:0] $end
$var wire 1 t" readbuf_switch_z $end
$var wire 8 u" out_addr_z [7:0] $end
$var wire 8 v" out1_addr_z [7:0] $end
$var wire 8 w" out1_addr [7:0] $end
$var wire 8 x" out0_addr_z [7:0] $end
$var wire 1 y" last_stage_z $end
$var wire 1 z" last_stage $end
$var wire 8 {" in1_addr [7:0] $end
$var wire 20 |" in1 [19:0] $end
$var wire 20 }" in0 [19:0] $end
$var wire 1 ~" first_stage $end
$var wire 1 !# finished_z $end
$var wire 1 "# bufferout_full $end
$var wire 1 ## bufferin_write_full $end
$var wire 1 $# bufferin_read_full $end
$var wire 1 %# bufferin_full1 $end
$var wire 1 &# bufferin_full0 $end
$var parameter 32 '# DEBUGMODE $end
$var parameter 2 (# FSM_ST_CALC $end
$var parameter 2 )# FSM_ST_IDLE $end
$var parameter 2 *# FSM_ST_INIT $end
$var parameter 2 +# FSM_ST_SEND $end
$var parameter 32 ,# N $end
$var parameter 32 -# NLOG2 $end
$var parameter 32 .# TF_WDTH $end
$var parameter 32 /# X_WDTH $end
$var reg 8 0# S [7:0] $end
$var reg 8 1# bufferin_addr [7:0] $end
$var reg 1 2# bufferin_full0_A $end
$var reg 1 3# bufferin_full0_B $end
$var reg 1 4# bufferin_full1_A $end
$var reg 1 5# bufferin_full1_B $end
$var reg 1 6# bufferin_read_switch $end
$var reg 1 7# bufferin_write_switch $end
$var reg 8 8# bufferout_addr [7:0] $end
$var reg 1 9# bufferout_full_A $end
$var reg 1 :# bufferout_full_B $end
$var reg 1 ;# finished $end
$var reg 2 <# fsm_state [1:0] $end
$var reg 8 =# out0_addr [7:0] $end
$var reg 8 ># out1_addr_z_old [7:0] $end
$var reg 1 M" out_nd $end
$var reg 20 ?# out_x [19:0] $end
$var reg 1 K" overflow $end
$var reg 1 @# readbuf_switch $end
$var reg 1 A# readbuf_switch_old $end
$var reg 1 B# readbuf_switch_z_last $end
$var reg 8 C# series_bits [7:0] $end
$var reg 1 D# tf_addr_nd $end
$var reg 256 E# updatedX [255:0] $end
$var reg 256 F# updatedY [255:0] $end
$var reg 1 G# x_nd $end
$var reg 1 H# z_nd_last $end
$scope module butterfly_0 $end
$var wire 1 h clk $end
$var wire 19 I# m_in [18:0] $end
$var wire 1 , rst_n $end
$var wire 1 G# x_nd $end
$var wire 20 J# xa [19:0] $end
$var wire 20 K# xb [19:0] $end
$var wire 10 L# zbw_im [9:0] $end
$var wire 11 M# z2_re_big [10:0] $end
$var wire 11 N# z2_im_big [10:0] $end
$var wire 11 O# z1_re_big [10:0] $end
$var wire 11 P# z1_im_big [10:0] $end
$var wire 20 Q# y [19:0] $end
$var wire 10 R# xb_re [9:0] $end
$var wire 10 S# xb_im [9:0] $end
$var wire 10 T# xa_re [9:0] $end
$var wire 10 U# xa_im [9:0] $end
$var wire 10 V# w_re [9:0] $end
$var wire 10 W# w_im [9:0] $end
$var wire 20 X# w [19:0] $end
$var parameter 65 Y# M_WDTH $end
$var parameter 32 Z# X_WDTH $end
$var reg 19 [# m_out [18:0] $end
$var reg 10 \# ww_im [9:0] $end
$var reg 10 ]# ww_re [9:0] $end
$var reg 10 ^# y_im [9:0] $end
$var reg 1 n" y_nd $end
$var reg 10 _# y_re [9:0] $end
$var reg 10 `# zb_im [9:0] $end
$var reg 10 a# zb_re [9:0] $end
$var reg 10 b# zbw_im_old [9:0] $end
$var reg 20 c# zbw_m1 [19:0] $end
$var reg 20 d# zbw_m2 [19:0] $end
$var reg 10 e# zbw_re [9:0] $end
$upscope $end
$scope module twiddlefactors_0 $end
$var wire 7 f# addr [6:0] $end
$var wire 1 D# addr_nd $end
$var wire 1 h clk $end
$var reg 20 g# tf_out [19:0] $end
$upscope $end
$upscope $end
$upscope $end
$scope module u_seg_ctrl $end
$var wire 1 f clk $end
$var wire 8 h# fft_addr0 [7:0] $end
$var wire 8 i# fft_addr1 [7:0] $end
$var wire 8 j# fft_data0 [7:0] $end
$var wire 8 k# fft_data1 [7:0] $end
$var wire 5 l# keys [4:0] $end
$var wire 1 , rst_n $end
$var wire 8 m# swiches [7:0] $end
$var wire 10 n# uart_freq [9:0] $end
$var wire 2 o# uart_wav_sel [1:0] $end
$var wire 3 p# uart_mode [2:0] $end
$var wire 2 q# uart_fft_rate [1:0] $end
$var wire 4 r# sel1 [3:0] $end
$var wire 4 s# sel0 [3:0] $end
$var wire 8 t# seg1 [7:0] $end
$var wire 8 u# seg0 [7:0] $end
$var wire 1 v# key_up_pulse $end
$var wire 1 w# key_right_pulse $end
$var wire 1 x# key_left_pulse $end
$var wire 1 y# key_down_pulse $end
$var wire 1 z# key_center_pulse $end
$var wire 10 {# freq_num [9:0] $end
$var wire 32 |# freq_char [31:0] $end
$var wire 32 }# fft_point_char1 [31:0] $end
$var wire 32 ~# fft_point_char0 [31:0] $end
$var wire 32 !$ fft_amp_char1 [31:0] $end
$var wire 32 "$ fft_amp_char0 [31:0] $end
$var parameter 8 #$ DA_HZ $end
$var parameter 8 $$ DA_KHZ $end
$var parameter 8 %$ DA_SCAN $end
$var parameter 8 &$ FFT $end
$var parameter 4 '$ HUN_K $end
$var parameter 32 ($ ID0 $end
$var parameter 32 )$ ID1 $end
$var parameter 8 *$ ID_DISP $end
$var parameter 4 +$ ONE_K $end
$var parameter 4 ,$ ONE_M $end
$var parameter 16 -$ REFRESH_MAX $end
$var parameter 4 .$ TEN_K $end
$var parameter 8 /$ UART $end
$var reg 4 0$ FFT_rate [3:0] $end
$var reg 1 J FFT_refresh_reg $end
$var reg 32 1$ data_in0 [31:0] $end
$var reg 32 2$ data_in1 [31:0] $end
$var reg 4 3$ dot_in0 [3:0] $end
$var reg 4 4$ dot_in1 [3:0] $end
$var reg 32 5$ fft_acc_char [31:0] $end
$var reg 32 6$ fft_char0 [31:0] $end
$var reg 32 7$ fft_char1 [31:0] $end
$var reg 4 8$ fft_dot1 [3:0] $end
$var reg 20 9$ fft_point_0 [19:0] $end
$var reg 20 :$ fft_point_1 [19:0] $end
$var reg 32 ;$ fft_tens [31:0] $end
$var reg 24 <$ freq_inc [23:0] $end
$var reg 8 =$ led [7:0] $end
$var reg 8 >$ mode [7:0] $end
$var reg 3 ?$ page [2:0] $end
$var reg 8 @$ position [7:0] $end
$var reg 16 A$ refresh_cnt [15:0] $end
$var reg 10 B$ seg_freq [9:0] $end
$var reg 32 C$ wav_disp [31:0] $end
$var reg 2 D$ wav_sel [1:0] $end
$scope module afft_char0 $end
$var wire 1 f clk $end
$var wire 10 E$ num [9:0] $end
$var wire 1 , rst_n $end
$var reg 32 F$ char [31:0] $end
$var reg 4 G$ num_h [3:0] $end
$var reg 4 H$ num_o [3:0] $end
$var reg 4 I$ num_t [3:0] $end
$upscope $end
$scope module afft_char1 $end
$var wire 1 f clk $end
$var wire 10 J$ num [9:0] $end
$var wire 1 , rst_n $end
$var reg 32 K$ char [31:0] $end
$var reg 4 L$ num_h [3:0] $end
$var reg 4 M$ num_o [3:0] $end
$var reg 4 N$ num_t [3:0] $end
$upscope $end
$scope module dis_freq $end
$var wire 1 f clk $end
$var wire 10 O$ num [9:0] $end
$var wire 1 , rst_n $end
$var reg 32 P$ char [31:0] $end
$var reg 4 Q$ num_h [3:0] $end
$var reg 4 R$ num_o [3:0] $end
$var reg 4 S$ num_t [3:0] $end
$upscope $end
$scope module pfft_char0 $end
$var wire 1 f clk $end
$var wire 10 T$ num [9:0] $end
$var wire 1 , rst_n $end
$var reg 32 U$ char [31:0] $end
$var reg 4 V$ num_h [3:0] $end
$var reg 4 W$ num_o [3:0] $end
$var reg 4 X$ num_t [3:0] $end
$upscope $end
$scope module pfft_char1 $end
$var wire 1 f clk $end
$var wire 10 Y$ num [9:0] $end
$var wire 1 , rst_n $end
$var reg 32 Z$ char [31:0] $end
$var reg 4 [$ num_h [3:0] $end
$var reg 4 \$ num_o [3:0] $end
$var reg 4 ]$ num_t [3:0] $end
$upscope $end
$scope module u_key_center $end
$var wire 1 f clk $end
$var wire 1 ^$ key $end
$var wire 1 z# key_pulse $end
$var parameter 32 _$ WAIT_BIT $end
$var reg 2 `$ counter [1:0] $end
$var reg 1 a$ state $end
$var reg 1 b$ state_d $end
$upscope $end
$scope module u_key_down $end
$var wire 1 f clk $end
$var wire 1 c$ key $end
$var wire 1 y# key_pulse $end
$var parameter 32 d$ WAIT_BIT $end
$var reg 2 e$ counter [1:0] $end
$var reg 1 f$ state $end
$var reg 1 g$ state_d $end
$upscope $end
$scope module u_key_left $end
$var wire 1 f clk $end
$var wire 1 h$ key $end
$var wire 1 x# key_pulse $end
$var parameter 32 i$ WAIT_BIT $end
$var reg 2 j$ counter [1:0] $end
$var reg 1 k$ state $end
$var reg 1 l$ state_d $end
$upscope $end
$scope module u_key_right $end
$var wire 1 f clk $end
$var wire 1 m$ key $end
$var wire 1 w# key_pulse $end
$var parameter 32 n$ WAIT_BIT $end
$var reg 2 o$ counter [1:0] $end
$var reg 1 p$ state $end
$var reg 1 q$ state_d $end
$upscope $end
$scope module u_key_up $end
$var wire 1 f clk $end
$var wire 1 r$ key $end
$var wire 1 v# key_pulse $end
$var parameter 32 s$ WAIT_BIT $end
$var reg 2 t$ counter [1:0] $end
$var reg 1 u$ state $end
$var reg 1 v$ state_d $end
$upscope $end
$scope module u_seg_disp $end
$var wire 1 f clk $end
$var wire 32 w$ data_in [31:0] $end
$var wire 4 x$ dot_in [3:0] $end
$var wire 1 , rst_n $end
$var wire 4 y$ sel [3:0] $end
$var parameter 32 z$ CLK_FREQ $end
$var parameter 32 {$ CNT_MAX $end
$var parameter 32 |$ REFRESH_RATE $end
$var reg 32 }$ cnt [31:0] $end
$var reg 28 ~$ data_reg [27:0] $end
$var reg 8 !% seg [7:0] $end
$var reg 4 "% sel_reg [3:0] $end
$var integer 32 #% i [31:0] $end
$var integer 32 $% j [31:0] $end
$scope function word2seg $end
$var reg 8 %% word [7:0] $end
$upscope $end
$upscope $end
$scope module u_seg_disp0 $end
$var wire 1 f clk $end
$var wire 32 &% data_in [31:0] $end
$var wire 4 '% dot_in [3:0] $end
$var wire 1 , rst_n $end
$var wire 4 (% sel [3:0] $end
$var parameter 32 )% CLK_FREQ $end
$var parameter 32 *% CNT_MAX $end
$var parameter 32 +% REFRESH_RATE $end
$var reg 32 ,% cnt [31:0] $end
$var reg 28 -% data_reg [27:0] $end
$var reg 8 .% seg [7:0] $end
$var reg 4 /% sel_reg [3:0] $end
$var integer 32 0% i [31:0] $end
$var integer 32 1% j [31:0] $end
$scope function word2seg $end
$var reg 8 2% word [7:0] $end
$upscope $end
$upscope $end
$upscope $end
$scope module u_uart_command $end
$var wire 1 f clk $end
$var wire 1 , rst_n $end
$var wire 20 3% recive_data [19:0] $end
$var reg 2 4% fft_rate [1:0] $end
$var reg 12 5% freq [11:0] $end
$var reg 1 @ refresh $end
$var reg 16 6% refresh_cnt [15:0] $end
$var reg 3 7% seg_en [2:0] $end
$var reg 1 C system_resetn $end
$var reg 2 8% wav_sel [1:0] $end
$upscope $end
$scope module u_uart_rx_cfg $end
$var wire 1 f clk $end
$var wire 1 , rst_n $end
$var wire 1 9% rx_en $end
$var wire 1 ! uart_rx $end
$var wire 1 :% rx_data_valid $end
$var wire 8 ;% rx_data [7:0] $end
$var wire 4 <% hex_data_out [3:0] $end
$var wire 20 =% command_data [19:0] $end
$var reg 3 >% bit_cnt [2:0] $end
$var reg 20 ?% wr_data [19:0] $end
$scope function ascii_to_hex_fn $end
$var reg 8 @% ch [7:0] $end
$upscope $end
$scope module u_uart_rx $end
$var wire 1 f clk $end
$var wire 1 , rst_n $end
$var wire 1 9% rx_data_ready $end
$var wire 1 A% rx_negedge $end
$var wire 1 ! rx_pin $end
$var parameter 32 B% BAUD_RATE $end
$var parameter 32 C% CLK_FRE $end
$var parameter 64 D% CYCLE $end
$var parameter 32 E% S_DATA $end
$var parameter 32 F% S_IDLE $end
$var parameter 32 G% S_REC_BYTE $end
$var parameter 32 H% S_START $end
$var parameter 32 I% S_STOP $end
$var reg 3 J% bit_cnt [2:0] $end
$var reg 16 K% cycle_cnt [15:0] $end
$var reg 3 L% next_state [2:0] $end
$var reg 8 M% rx_bits [7:0] $end
$var reg 1 N% rx_d0 $end
$var reg 1 O% rx_d1 $end
$var reg 8 P% rx_data [7:0] $end
$var reg 1 :% rx_data_valid $end
$var reg 3 Q% state [2:0] $end
$upscope $end
$upscope $end
$upscope $end
$scope module u_uart_tx_cfg $end
$var wire 1 ) clk $end
$var wire 1 , rst_n $end
$var wire 20 R% tx_data_in [19:0] $end
$var wire 1 " tx_done $end
$var wire 1 / tx_pulse $end
$var wire 1 ! uart_tx $end
$var wire 1 S% tx_data_valid $end
$var wire 1 T% tx_data_ready $end
$var wire 8 U% tx_data [7:0] $end
$var wire 40 V% data_ascii [39:0] $end
$var parameter 5 W% BIT_NUM $end
$var parameter 2 X% IDLE $end
$var parameter 2 Y% SEND $end
$var reg 2 Z% state [1:0] $end
$var reg 5 [% tx_cnt [4:0] $end
$var reg 1 \% tx_data_valid_reg $end
$scope function hex_to_ascii_fn $end
$var reg 4 ]% ch [3:0] $end
$upscope $end
$scope module u_uart_tx $end
$var wire 1 ) clk $end
$var wire 1 , rst_n $end
$var wire 8 ^% tx_data [7:0] $end
$var wire 1 S% tx_data_valid $end
$var wire 1 ! tx_pin $end
$var parameter 32 _% BAUD_RATE $end
$var parameter 32 `% CLK_FRE $end
$var parameter 64 a% CYCLE $end
$var parameter 32 b% S_IDLE $end
$var parameter 32 c% S_SEND_BYTE $end
$var parameter 32 d% S_START $end
$var parameter 32 e% S_STOP $end
$var reg 3 f% bit_cnt [2:0] $end
$var reg 16 g% cycle_cnt [15:0] $end
$var reg 3 h% next_state [2:0] $end
$var reg 3 i% state [2:0] $end
$var reg 8 j% tx_data_latch [7:0] $end
$var reg 1 T% tx_data_ready $end
$var reg 1 k% tx_reg $end
$upscope $end
$upscope $end
$upscope $end
$enddefinitions $end
$comment Show the parameter values. $end
$dumpall
b100 e%
b10 d%
b11 c%
b1 b%
b1101100100 a%
b1100100 `%
b11100001000000000 _%
b1 Y%
b0 X%
b101 W%
b100 I%
b10 H%
b11 G%
b1 F%
b101 E%
b1010110 D%
b1010 C%
b11100001000000000 B%
b1111101000 +%
b1100001101010000 *%
b10111110101111000010000000 )%
b1111101000 |$
b1100001101010000 {$
b10111110101111000010000000 z$
b10 s$
b10 n$
b10 i$
b10 d$
b10 _$
b101 /$
b10 .$
b11000111 -$
b1000 ,$
b1 +$
b0 *$
b1001001010000110011001000110011 )$
b110000001100110011000000111001 ($
b100 '$
b11 &$
b100 %$
b1 $$
b10 #$
b1010 Z#
b10011 Y#
b1010 /#
b1010 .#
b1000 -#
b100000000 ,#
b11 +#
b0 *#
b1 )#
b10 (#
b0 '#
b100000000000000 j"
b10000110011101000101111011100000111001001101111011001110111001001100001011011010011000100101111010100000111001001101111011001110111001001100001011011010010111100110010001100000011000100111001001011100011001001110110011010010111011001100001011001000110111101110000011100100110101000101101011011010110000101110011011101000110010101110010001011110110010001101001011001110110100101110100011000010110110000100000011101000110010101110011011101000010111101110010011011110110110100101111011100110111000101110010011101000101111101110010011011110110110100101110011101000111100001110100 i"
b1000 h"
b1110 g"
b1001 U"
b1000 T"
b1010 S"
b1110 R"
b111 Q"
b10 :"
b0 9"
b1 8"
b111 7"
b10011010100000101011000 6"
b1000 5"
b0 4"
b100000000 ("
b10000110011101000101111011100000111001001101111011001110111001001100001011011010011000100101111010100000111001001101111011001110111001001100001011011010010111100110010001100000011000100111001001011100011001001110110011010010111011001100001011001000110111101110000011100100110101000101101011011010110000101110011011101000110010101110010001011110110010001101001011001110110100101110100011000010110110000100000011101000110010101110011011101000010111101110010011011110110110100101111011100110110100101101110011001010101111101110010011011110110110100101110011101000111100001110100 '"
b1001 &"
b1000 %"
b0 w
b1000 v
b11111111 u
b11000 t
b1010 s
b0 b
b1000 a
b11000 `
b1001001010000110011001000110011 _
b110000001100110011000000111001 ^
b1010 ]
$end
#0
$dumpvars
1k%
b0 j%
b1 i%
b1 h%
b0 g%
b0 f%
b110000 ^%
b0 ]%
0\%
b0 [%
b0 Z%
b11000000110000001100000011000000110000 V%
b110000 U%
0T%
0S%
b0 R%
b1 Q%
b0 P%
0O%
0N%
b0 M%
b1 L%
b0 K%
b0 J%
0A%
b0 @%
b0 ?%
b0 >%
b0 =%
b0 <%
b0 ;%
0:%
19%
b0 8%
b0 7%
b0 6%
b111110100 5%
b10 4%
b0 3%
bx 2%
b100 1%
bx 0%
b1 /%
b0 .%
b0 -%
b0 ,%
b1 (%
b0 '%
b0 &%
bx %%
b100 $%
bx #%
b1 "%
b0 !%
b0 ~$
b0 }$
b1 y$
b0 x$
b0 w$
0v$
0u$
b0 t$
0r$
0q$
0p$
b0 o$
0m$
0l$
0k$
b0 j$
0h$
0g$
0f$
b0 e$
0c$
0b$
0a$
b0 `$
0^$
b0 ]$
b0 \$
b0 [$
b110000001100000011000000110000 Z$
b0 Y$
b0 X$
b0 W$
b0 V$
b110000001100000011000000110000 U$
b0 T$
b0 S$
b0 R$
b0 Q$
b110000001100000011000000110000 P$
b111110100 O$
b0 N$
b0 M$
b0 L$
b110000001100000011000000110000 K$
b0 J$
b0 I$
b0 H$
b0 G$
b110000001100000011000000110000 F$
b0 E$
b0 D$
b0 C$
b111110100 B$
b0 A$
b1 @$
b1 ?$
b0 >$
b0 =$
b0 <$
b101101001100010100010100110010 ;$
b0 :$
b0 9$
bx 8$
b0 7$
b0 6$
b110000001110000011000000110000 5$
b0 4$
b0 3$
b0 2$
b0 1$
b1000 0$
b110000001100000011000000110000 "$
b110000001100000011000000110000 !$
b110000001100000011000000110000 ~#
b110000001100000011000000110000 }#
b110000001100000011000000110000 |#
b111110100 {#
0z#
0y#
0x#
0w#
0v#
b0 u#
b0 t#
b1 s#
b1 r#
b10 q#
b0 p#
b0 o#
b111110100 n#
b0 m#
b0 l#
b0 k#
b0 j#
b0 i#
b0 h#
bx g#
bx f#
bx e#
bx d#
bx c#
bx b#
bx a#
bx `#
bx _#
bx ^#
bx ]#
bx \#
bx [#
bx X#
bx W#
bx V#
bx U#
bx T#
bx S#
bx R#
bx Q#
bx P#
bx O#
bx N#
bx M#
bx L#
bx K#
bx J#
bx1xxxxxxxxx I#
0H#
0G#
bx F#
bx E#
0D#
bx C#
xB#
xA#
0@#
bx ?#
bx >#
bx =#
b0 <#
x;#
0:#
09#
b0 8#
07#
06#
05#
04#
03#
02#
b0 1#
bx 0#
0&#
0%#
0$#
0##
0"#
x!#
x~"
bx }"
bx |"
bx {"
xz"
xy"
bx x"
b1xxxxxxx w"
bx v"
bx u"
xt"
bx s"
bx r"
xq"
xp"
bx o"
0n"
b0 m"
bx l"
b0 k"
b0 f"
0e"
0d"
b0 c"
b0 b"
0a"
0`"
0_"
b0 ^"
b0 ]"
0\"
b0 ["
b0 Z"
b0 Y"
b0 X"
b0 W"
b0 V"
b0 P"
b0 O"
b0 N"
0M"
bx L"
0K"
0J"
b0 I"
0H"
0G"
b0 F"
b0 E"
b0 D"
b0 C"
b0 B"
b0 A"
b0 @"
b0 ?"
b0 >"
0="
0<"
b0 ;"
b0 3"
b0 2"
b0 1"
b0 0"
b0 /"
0."
0-"
b1111111 ,"
b0 +"
b0 *"
b0 )"
b11111111 $"
b0 #"
b0 ""
b0 !"
b0 ~
b0 }
b0 |
b0 {
b0 z
b11111111 y
b0 x
b0 r
b0 q
b0 p
b0 o
b10001 n
b0 m
0l
b0 k
b0 j
b0 i
0h
b0 g
0f
b0 e
b1111101000 d
b10001 c
b0 \
b0 [
b0 Z
b0 Y
b10000000000000 X
0W
b0 V
b0 U
b0 T
b0 S
b0 R
0Q
0P
0O
b0 N
b0 M
b0 L
b1000 K
0J
b0 I
b0 H
b1 G
b1 F
b0 E
b0 D
xC
b0 B
b10 A
0@
b111110100 ?
b0 >
b0 =
b0 <
0;
z:
09
bz 8
b0 7
b0 6
b0 5
b0 4
b1000 3
z2
z1
b1000000000 0
0/
b0 .
b0 -
0,
0+
b0 *
0)
0(
b1000000000 '
0&
b10000000000000 %
b0 $
b1 #
0"
1!
$end
#1000000000000
1)
#2000000000000
0)
#3000000000000
1)
#4000000000000
0)
#5000000000000
1)
#6000000000000
0)
#7000000000000
1)
#8000000000000
0)
#9000000000000
1)
#10000000000000
0)
#11000000000000
1)
#12000000000000
0)
#13000000000000
1)
#14000000000000
0)
#15000000000000
1)
#16000000000000
0)
#17000000000000
1)
#18000000000000
0)
#19000000000000
1)
#20000000000000
0)
1,
#21000000000000
b1 g%
1T%
b1 i
b11000 d
b1 g
1)
#22000000000000
0)
#23000000000000
b10 g
b10 i
b10 g%
1)
#24000000000000
0)
#25000000000000
b11 g%
b11 i
b11 g
1)
#26000000000000
0)
#27000000000000
b100 g
b100 i
b100 g%
1)
#28000000000000
0)
#29000000000000
xW
b0z e
b111111111 D
b111111111 !"
b111111111 r
b111111111 *"
b10 p
b10 )"
b1 4$
b1 x$
b1001001010000110011001000110011 2$
b1001001010000110011001000110011 w$
b110000001100110011000000111001 1$
b110000001100110011000000111001 &%
b1010011010010010100111001000101 C$
b1 }$
b1 ,%
b101101001100000011000000110000 !$
b101101001100000011000000110000 K$
b101101001100000011000000110000 "$
b101101001100000011000000110000 F$
b101101001100000011000000110000 }#
b101101001100000011000000110000 Z$
b101101001100000011000000110000 ~#
b101101001100000011000000110000 U$
b101101001100000011000000110000 |#
b101101001100000011000000110000 P$
b101 Q$
b1 K%
1N%
b100 $%
b0 %%
b100 #%
b100 1%
b0 2%
b100 0%
b101 g%
b101 i
1&
1f
b0 g
1)
#30000000000000
0)
#31000000000000
b1 g
b110 i
b110 g%
1)
#32000000000000
0)
#33000000000000
b111 g%
b111 i
b10 g
1)
#34000000000000
0)
#35000000000000
b11 g
b1000 i
b1000 g%
1)
#36000000000000
0)
